^C:\USERS\TQAND\SOURCE\REPOS\BSTCHECKER\BSTCHECKER\SOURCE.CPP
C:\USERS\TQAND\SOURCE\REPOS\BSTCHECKER\BSTCHECKER\DEBUG\VC142.PDB
C:\USERS\TQAND\SOURCE\REPOS\BSTCHECKER\BSTCHECKER\DEBUG\VC142.IDB
C:\USERS\TQAND\SOURCE\REPOS\BSTCHECKER\BSTCHECKER\DEBUG\SOURCE.OBJ
